<?xml version="1.0" encoding="utf-8"?>
<!-- Generator: Adobe Illustrator 19.0.0, SVG Export Plug-In . SVG Version: 6.00 Build 0)  -->
<svg version="1.1" id="Layer_1" xmlns="http://www.w3.org/2000/svg" xmlns:xlink="http://www.w3.org/1999/xlink" x="0px" y="0px"
	 viewBox="0 0 145.8 601.4" enable-background="new 0 0 145.8 601.4" xml:space="preserve">
<g id="XMLID_88_">
	<defs>
		<rect id="XMLID_28_" x="17.6" y="2" width="114.6" height="423.2"/>
	</defs>
	<clipPath id="XMLID_131_">
		<use xlink:href="#XMLID_28_"  overflow="visible"/>
	</clipPath>
	<path id="XMLID_110_" clip-path="url(#XMLID_131_)" d="M92.4,230.1v24.4h39v-3.3h-16.8v-18.6h-3.2v18.6H95.7v-21.2H92.4z
		 M92.4,195.5V220h39.1v-24.5h-3.3v21.2h-14.6v-19.6h-3.3v19.6H95.6v-21.2H92.4z M101.9,182.2c-9.1-0.7-9.3-17.7-1.6-21.2l-1.3-2.9
		c-10.6,4.6-9.8,26.8,2.8,27.3c15.5,0.6,6.3-25.3,19.8-24.1c9.4,0.8,9.5,18.3,1.6,21.8v0.1l1.3,2.9c10.9-4.7,10.1-27.3-2.8-28
		C104.5,157.2,114.1,183,101.9,182.2 M92.4,150.7h3.3v-13h35.8v-3.3H95.6v-13h-3.3V150.7z M131.4,112v-3.3h-39v3.3H131.4z
		 M131.4,80.2l-39-14v3.4l36.6,13L92.4,95.6v3.4l39-14.1V80.2z M131.4,64.8v-3.4l-13-4.6V40.1l13-4.7V32l-39,14.1v4.7L131.4,64.8z
		 M115.2,55.7l-20.3-7.2l20.3-7.2V55.7z M128.2,2v19.5H92.4v3.3h39V2H128.2z"/>
	<path id="XMLID_104_" clip-path="url(#XMLID_131_)" d="M92.5,393.8v24.4h39V415h-16.8v-18.6h-3.3V415H95.8v-21.2H92.5z M95.8,368.9
		h24.6c11,0,11.6,19.2,1.6,21.2l0.6,3.2c13.7-2.5,12.5-27.6-2.2-27.6H92.5v16.3h3.3V368.9z M92.5,329.9v24.5h39.1v-24.5h-3.3v21.2
		h-14.6v-19.6h-3.3v19.6H95.7v-21.2H92.5z M128.3,295.6v19.5H92.5v3.3h39v-22.8H128.3z M128.3,263.7v19.5H92.5v3.3h39v-22.8H128.3z"
		/>
	<path id="XMLID_96_" clip-path="url(#XMLID_131_)" d="M34.5,418.2h39V415h-34l34-21.2v-4.9h-39v3.3h35.4l-35.4,22V418.2z
		 M45.5,376.9h17c16,0,16-30.9,0-30.9h-17C29.5,345.9,29.5,376.9,45.5,376.9 M45.5,373.6c-6.1,0-8.7-6.1-8.8-12.1
		c0-6.1,2.6-12.3,8.8-12.3h17c11.7,0.1,11.7,24.4,0,24.4H45.5z M57,319.2v-0.1c0-7-3-13-11.1-13c-8.1,0.2-11.4,5.7-11.4,13.1v14.7
		h39v-3.3H57v-7.4L73.5,310v-3.9L57,319.2z M54,330.6H37.7v-11.5c-0.1-5.7,2-9.8,8.1-9.8c6.2,0,8.2,3.7,8.2,9.8V330.6z M44,293.1
		c-9.1-0.7-9.3-17.8-1.6-21.2l-1.3-2.9c-10.6,4.6-9.8,26.8,2.8,27.3c15.5,0.6,6.3-25.3,19.8-24.1c9.4,0.8,9.5,18.3,1.6,21.8v0.1
		l1.3,2.9c10.9-4.7,10.1-27.3-2.8-28C46.6,268.1,56.2,294,44,293.1 M34.5,257.8h39v-3.3h-13l-4.9-4.9l17.9-16.8v-4.2l-20.2,18.7
		l-18.8-18.8v4.2l21.4,21.8H34.5V257.8z"/>
	<path id="XMLID_33_" clip-path="url(#XMLID_131_)" d="M-48.1,356.8c-0.8,1.3,9,4.7,11.2,5.4l1.4-4.4
		C-37.4,357.4-47.3,355.5-48.1,356.8"/>
	<path id="XMLID_32_" clip-path="url(#XMLID_131_)" d="M-7.9,390.7l-33.2-23.4c0,0-7.5-2.2-9.7-2.7c-7.8-1.6-14.4-1.8-16.2-1.8
		c-1.8,0-3.7,0.3-3.7,0.3l2.3,7.1l-4,7.1l17,45.3C-37.6,418-19.2,406.2-7.9,390.7"/>
	<path id="XMLID_31_" clip-path="url(#XMLID_131_)" d="M-49.6,263.1l-5.8,12.4l-39,12.8v13.8l-25.7,7.4v7.6l39.7,16.6L-76,347
		c0,0,2.8-0.3,6.2-0.3c19.6,0.3,32.4,5.1,35.5,5.5l40.3-28.5C-0.2,294.7-21.4,271.8-49.6,263.1"/>
	<path id="XMLID_90_" clip-path="url(#XMLID_131_)" d="M-109.3,361.7c0-3.4,2.8-6.2,6.2-6.2c3.4,0,6.2,2.8,6.2,6.2
		c0,3.5-2.8,6.2-6.2,6.2C-106.5,367.9-109.3,365.1-109.3,361.7 M-72.5,369.6l-2.3-6.4c-0.1,0-4.7,0.3-6.6,0.8
		c-1.9,0.5-2.7,1.1-3.4,2.3c-0.6,1.1-0.2,2.8,0,4.1c0.3,1.6,1.3,5.8,1.5,7.4c0.1,1.6,0,9.8-0.1,10.1c0,0.3-0.3,0.5-0.5,0.6
		c-0.2,0.1-0.5,0.1-0.5,0.4c0,0.3,0.9,2.9,0.9,3.3c0.1,0.8,0.2,1.5-0.2,2.2c-0.4,0.8-1.9,2.5-2.2,2.6c-0.5,0.2-0.7-0.3-0.7-0.6
		c0-0.3,0.9-1.9,0.8-3.4c-0.1-0.8-0.2-1.4-0.4-1.7c-0.2-0.3-0.6-0.4-0.9-0.1c-0.3,0.3-1,1.3-1.3,1.3c-0.5,0-0.5-0.2-0.3-0.6
		c0.2-0.3,0.6-0.6,0.9-1.5c0.3-0.8,0.3-1.1,0.9-1.5c0.5-0.3,0.2-0.4,0-0.8c-0.2-0.5-0.2-1.7-0.3-3c-0.1-1.3-1.3-10.7-2-11.7
		c-0.7-1-1.1-1.7-1.2-2.6c-0.1-0.9-0.1-1-0.3-1.7c-0.3-1.2-1.1-1.2-1.3-1.2c-0.2,0-0.5,0.1-0.7,0.1c-0.5,0-0.7-0.2-0.8-0.2
		c-0.7-0.5-1.2-2.1-1-2.7c0.1-0.3,0.4-0.7,0.6-1.1c0.3-0.4,0.4-0.6,0.4-0.7c0.2-0.5-0.7-0.5-0.9-0.9c-0.1-0.3-0.2-0.4,0.1-1.4
		c0.3-1,1-3.8,1.1-4.2c0.1-0.3,0-0.7-0.9-0.9c-0.3-0.1-2.6-0.3-3-0.5c-0.4-0.2-0.4-0.6-0.5-1.3c-0.1-0.7-0.1-1.4,0-1.7
		c0.1-0.3,0.2-0.5,0.3-0.7c0.2-0.3,0.7-1,0.8-1.6c0-1.5-5.2-8.4-5.3-8.8c-0.2-0.6,0.1-0.7,0-0.9c-0.1-0.2-0.7-0.5-1.2-0.5
		c-0.5,0-1,0.3-1.3,0.3c-0.1,0-0.2-0.2-0.1-0.4c0.2-0.3,0.6-0.4,1-0.4c0.3,0,0.3-0.1,0.3-0.2c-0.3-0.9-1.8-0.2-1.8-0.8
		c0-0.4,0.4-1.1,1.5-1.2c0.6-0.1,1.8,0,2.7,1.8c0,0,0.1,0.3,0.3,0.1c0.9-0.6,2.3,1.1,2.9,1.9c0.6,0.7,4.5,5.5,5.3,6.2
		c2.4,2.1,4.2,1.9,5.6,1.8c1.4-0.1,4.1-0.7,6.1-1.3l-3.6-11.3l-39.7-17v-12.7l25.2-7.6v-13.7l40.1-14l4.1-9.8
		c-8.8-2.5-17.3-3-25.8-3c-45.5,0-82.2,37.8-82.2,83.3c0,45.5,36.9,83.2,82.4,83.2c7.1,0,13-0.3,20.2-1.7l-17.1-46.2L-72.5,369.6z"
		/>
</g>
<g id="XMLID_56_">
	<defs>
		<rect id="XMLID_1_" x="2" y="451.8" width="145.8" height="151.6"/>
	</defs>
	<clipPath id="XMLID_132_">
		<use xlink:href="#XMLID_1_"  overflow="visible"/>
	</clipPath>
	<path id="XMLID_78_" clip-path="url(#XMLID_132_)" d="M216.6,438.9v20.6h32.9v-2.7h-14.1v-15.7h-2.7v15.7h-13.3v-17.8H216.6z
		 M216.6,409.8v20.6h32.9v-20.6h-2.7v17.9h-12.3v-16.5h-2.8v16.5h-12.4v-17.9H216.6z M224.6,398.5c-7.7-0.6-7.8-15-1.3-17.8
		l-1.1-2.5c-8.9,3.9-8.3,22.6,2.4,23c13.1,0.5,5.3-21.3,16.7-20.4c7.9,0.7,8,15.4,1.3,18.4v0.1l1.1,2.5c9.2-4,8.5-23-2.4-23.6
		C226.9,377.4,234.9,399.2,224.6,398.5 M216.6,372h2.7v-11h30.2v-2.7h-30.2v-11h-2.7V372z M249.5,339.4v-2.7h-32.9v2.7H249.5z
		 M249.5,312.6l-32.9-11.8v2.9l30.9,10.9l-30.9,11v2.9l32.9-11.8V312.6z M249.5,299.6v-2.9l-11-3.9v-14.1l11-3.9v-2.9l-32.9,11.9v4
		L249.5,299.6z M235.8,291.9l-17.1-6.1l17.1-6.1V291.9z M246.8,246.6v16.4h-30.2v2.7h32.9v-19.2H246.8z"/>
	<path id="XMLID_72_" clip-path="url(#XMLID_132_)" d="M216.7,576.9v20.6h32.9v-2.7h-14.1v-15.7h-2.7v15.7h-13.3v-17.8H216.7z
		 M219.5,555.9h20.8c9.3,0,9.8,16.2,1.3,17.8l0.5,2.7c11.6-2.1,10.5-23.3-1.9-23.3h-23.5v13.7h2.7V555.9z M216.7,523v20.6h32.9V523
		h-2.7v17.9h-12.3v-16.5h-2.8v16.5h-12.4V523H216.7z M246.9,494.1v16.4h-30.2v2.7h32.9v-19.2H246.9z M246.9,467.2v16.4h-30.2v2.7
		h32.9v-19.2H246.9z"/>
	<path id="XMLID_64_" clip-path="url(#XMLID_132_)" d="M167.8,597.5h32.9v-2.7H172l28.7-17.8v-4.1h-32.9v2.7h29.9l-29.9,18.6V597.5z
		 M177.1,562.6h14.4c13.5,0,13.5-26.1,0-26.1h-14.4C163.6,536.6,163.6,562.6,177.1,562.6 M177.1,559.9c-5.1,0-7.3-5.1-7.4-10.2
		c0-5.2,2.2-10.4,7.4-10.4h14.4c9.9,0.1,9.9,20.6,0,20.6H177.1z M186.8,514L186.8,514c0-6-2.6-11.1-9.4-11.1
		c-6.8,0.1-9.6,4.8-9.6,11v12.4h32.9v-2.7h-13.9v-6.3l13.9-11.1V503L186.8,514z M184.3,523.6h-13.7v-9.7c-0.1-4.8,1.7-8.2,6.8-8.2
		c5.2,0,6.9,3.2,6.9,8.2V523.6z M175.8,492.1c-7.7-0.6-7.8-15-1.3-17.8l-1.1-2.5c-8.9,3.9-8.3,22.6,2.4,23
		c13.1,0.5,5.3-21.3,16.7-20.3c7.9,0.7,8,15.4,1.3,18.4v0l1.1,2.5c9.2-4,8.5-23-2.4-23.6C178,471,186.1,492.8,175.8,492.1
		 M167.8,462.3h32.9v-2.7h-11l-4.1-4.1l15.1-14.2v-3.5l-17.1,15.7l-15.8-15.8v3.5l18.1,18.4h-18.1V462.3z"/>
	<path id="XMLID_6_" clip-path="url(#XMLID_132_)" d="M98.2,545.7c-0.7,1.1,7.6,3.9,9.4,4.5l1.2-3.7
		C107.2,546.2,98.9,544.6,98.2,545.7"/>
	<path id="XMLID_5_" clip-path="url(#XMLID_132_)" d="M132,574.3l-28-19.8c0,0-6.3-1.9-8.2-2.3c-6.6-1.3-12.2-1.5-13.7-1.5
		c-1.5,0-3.1,0.2-3.1,0.2l2,6l-3.4,6L91.9,601C107.1,597.3,122.5,587.3,132,574.3"/>
	<path id="XMLID_4_" clip-path="url(#XMLID_132_)" d="M97,466.7l-4.9,10.5L59.2,488v11.6l-21.7,6.2v6.4l33.5,14l3.7,11.2
		c0,0,2.4-0.3,5.3-0.2c16.5,0.3,27.3,4.3,30,4.7l34-24C138.6,493.4,120.7,474,97,466.7"/>
	<path id="XMLID_58_" clip-path="url(#XMLID_132_)" d="M46.6,549.8c0-2.9,2.3-5.3,5.3-5.3c2.9,0,5.3,2.4,5.3,5.3
		c0,2.9-2.4,5.3-5.3,5.3C48.9,555.1,46.6,552.7,46.6,549.8 M77.6,556.5l-1.9-5.4c-0.1,0-4,0.3-5.5,0.7s-2.3,0.9-2.9,2
		c-0.5,0.9-0.1,2.4,0,3.5c0.2,1.4,1.1,4.9,1.2,6.2c0.1,1.3,0,8.3-0.1,8.5c0,0.3-0.2,0.4-0.5,0.5c-0.2,0.1-0.4,0.1-0.4,0.4
		c0,0.2,0.7,2.5,0.8,2.8c0.1,0.7,0.2,1.3-0.2,1.9c-0.3,0.6-1.6,2.1-1.8,2.2c-0.4,0.1-0.6-0.2-0.6-0.5c0-0.2,0.8-1.6,0.7-2.9
		c0-0.6-0.1-1.2-0.3-1.4c-0.2-0.2-0.5-0.3-0.8-0.1c-0.3,0.2-0.8,1.1-1.1,1.1c-0.4,0-0.4-0.2-0.2-0.5c0.2-0.3,0.5-0.5,0.8-1.2
		c0.3-0.7,0.3-0.9,0.7-1.3c0.4-0.3,0.2-0.3,0-0.7c-0.2-0.4-0.2-1.4-0.2-2.5c-0.1-1.1-1.1-9-1.7-9.8c-0.6-0.8-0.9-1.4-1-2.2
		c-0.1-0.8-0.1-0.8-0.2-1.4c-0.2-1-0.9-1-1.1-1c-0.2,0-0.4,0.1-0.6,0.1c-0.4,0-0.6-0.2-0.7-0.2c-0.6-0.4-1-1.7-0.9-2.3
		c0.1-0.3,0.3-0.6,0.5-0.9c0.2-0.4,0.3-0.5,0.3-0.6c0.2-0.4-0.6-0.4-0.7-0.8c-0.1-0.3-0.1-0.3,0.1-1.2c0.3-0.9,0.9-3.2,1-3.5
		c0.1-0.2,0-0.6-0.8-0.8c-0.3-0.1-2.2-0.2-2.5-0.4c-0.3-0.2-0.4-0.5-0.4-1.1c-0.1-0.6-0.1-1.1,0-1.5c0.1-0.3,0.1-0.4,0.3-0.6
		c0.2-0.2,0.6-0.8,0.6-1.3c0-1.3-4.4-7.1-4.5-7.4c-0.2-0.5,0.1-0.6,0-0.8c-0.1-0.2-0.6-0.4-1-0.4c-0.4,0-0.8,0.2-1.1,0.2
		c-0.1,0-0.1-0.2-0.1-0.4c0.1-0.2,0.5-0.3,0.8-0.4c0.3,0,0.3-0.1,0.2-0.2c-0.2-0.8-1.5-0.1-1.5-0.7c0-0.4,0.3-0.9,1.3-1
		c0.5-0.1,1.5,0,2.2,1.5c0,0,0.1,0.3,0.3,0.1c0.8-0.5,2,1,2.5,1.6c0.5,0.6,3.8,4.7,4.4,5.2c2,1.8,3.5,1.6,4.7,1.5
		c1.2-0.1,3.5-0.6,5.2-1.1l-3.1-9.5l-33.5-14.3v-10.7l21.3-6.4v-11.5l33.8-11.8l3.5-8.2c-7.4-2.1-14.6-2.5-21.7-2.5
		C33,463,2,494.9,2,533.2c0,38.4,31.1,70.1,69.5,70.1c6,0,10.9-0.2,17.1-1.5L74.1,563L77.6,556.5z"/>
</g>
</svg>
